{
  "latestVersion": "15.7",
  "latestVersionCode": 949,
  "disableRequest": {
    "below": 949,
    "on": "948 947 946"
  },
  "url": "https://play.google.com/store/apps/details?id=com.bandot.klepon.wheel.darkiconpack",
  "releaseNotes": [
    "78 new icons",
	  "Lot of activities update",
	  "Redesign some icons"
  ]
}
